{"name":"Rally Karting Antofagasta","picture":{"data":{"is_silhouette":false,"url":"https:\/\/scontent.xx.fbcdn.net\/v\/t1.0-1\/p50x50\/12573937_547621632074023_4639539165416548922_n.jpg?oh=de3f5156590bf5a3d8d9ac61924fba3f&oe=5A0F2ADA"}},"posts":{"data":[{"name":"Photos from Rally Karting Antofagasta's post","object_id":"623024151200437","message":"HOY VUELVE LA PROMO 30\u0025 MAS EN TUS VUELTAS HASTA LAS 22:00!!!!\n\n$7.000 10 VUELTAS! HOY CORRES 12 + LA DE RECONOCIMIENTO\n$10.000 18 VUELTAS! HOY CORRES 25 + LA DE RECONOCIMIENTO\n$15.000 28 VUELTAS! HOY CORRES 35 + LA DE RECONOCIMIENTO\n\nADEMAS PUEDES PEDIR TU PROMO MEDALLAS! TU ELIGES!\n\nVALIDA SOLO EN LOS VALORES PUBLICADOS","type":"photo","link":"https:\/\/www.facebook.com\/kartingafta\/photos\/a.378757462293775.1073741829.267106520125537\/623024151200437\/?type=3","id":"267106520125537_623024177867101","created_time":"2016-07-19T22:04:53+0000","full_picture":"https:\/\/scontent.xx.fbcdn.net\/v\/t1.0-9\/s720x720\/13707716_623024151200437_8806112806553152134_n.jpg?oh=68f579ebd7a6735d2c106a92759d63d1&oe=5A0104F5","picture":"https:\/\/scontent.xx.fbcdn.net\/v\/t1.0-0\/s130x130\/13707716_623024151200437_8806112806553152134_n.jpg?oh=c06d4b93aae0dd0ef20d0d9588d282cf&oe=59D0110A","status_type":"added_photos","story":"Rally Karting Antofagasta added 2 new photos.","likes":{"data":[{"id":"10213487503363147","name":"Patricio Alarc\u00f3n"}],"paging":{"cursors":{"before":"MTAyMTM0ODc1MDMzNjMxNDcZD","after":"MTAyMTM0ODc1MDMzNjMxNDcZD"}},"summary":{"total_count":1,"can_like":false,"has_liked":false}},"attachments":{"data":[{"subattachments":{"data":[{"media":{"image":{"height":521,"src":"https:\/\/scontent.xx.fbcdn.net\/v\/t1.0-9\/s720x720\/13707716_623024151200437_8806112806553152134_n.jpg?oh=68f579ebd7a6735d2c106a92759d63d1&oe=5A0104F5","width":720}},"target":{"id":"623024151200437","url":"https:\/\/www.facebook.com\/kartingafta\/photos\/a.378757462293775.1073741829.267106520125537\/623024151200437\/?type=3"},"type":"photo","url":"https:\/\/www.facebook.com\/kartingafta\/photos\/a.378757462293775.1073741829.267106520125537\/623024151200437\/?type=3"},{"media":{"image":{"height":540,"src":"https:\/\/scontent.xx.fbcdn.net\/v\/t1.0-0\/p180x540\/13718776_623024137867105_8757976356315139203_n.jpg?oh=71fb23d84eb3a7877c7a54bf93aed259&oe=5A0072D4","width":720}},"target":{"id":"623024137867105","url":"https:\/\/www.facebook.com\/kartingafta\/photos\/a.378757462293775.1073741829.267106520125537\/623024137867105\/?type=3"},"type":"photo","url":"https:\/\/www.facebook.com\/kartingafta\/photos\/a.378757462293775.1073741829.267106520125537\/623024137867105\/?type=3"}]},"target":{"id":"623024177867101","url":"https:\/\/www.facebook.com\/kartingafta\/posts\/623024177867101"},"title":"Photos from Rally Karting Antofagasta's post","type":"album","url":"https:\/\/www.facebook.com\/kartingafta\/posts\/623024177867101"}]}},{"name":"Club Karting Chile","object_id":"1822040531358619","description":"NOS VAMOS CON TODO POR LA MASIFICACI\u00d3N DEL KARTING EN CHILE!!!!\n\nLes contamos que este a\u00f1o se realizar\u00e1, por vez primera e in\u00e9dita en nuestro pa\u00eds, una Copa de Karting donde se mezclar\u00e1 la participaci\u00f3n de pilotos Amateur, que llegar\u00e1n clasificados desde una alianza con Rally Karting en todas sus sedes a nivel nacional, pilotos profesionales que participan de los distintos Campeonatos y Clubes de Karting Profesional del pa\u00eds y adem\u00e1s de pilotos invitados desde otras disciplinas del deporte motor.\n\nPara todo esto, contaremos con el patrocinio y apoyo como siempre de Fadech, con quienes trabajaremos para asegurar los est\u00e1ndares del evento a los niveles ferederados correspondientes.\n\nPronto tendremos m\u00e1s detalles, pero la fecha tentativa ser\u00e1 Noviembre de este a\u00f1o...\n\nEl lugar??? Donde m\u00e1s que en LAMPA Kart Center, nuestra casa y el mejor Kart\u00f3dromo a nivel nacional.\n\nSigue las informaciones usando #race2016 e informate tambi\u00e9n en cualquiera de las sedes de Rally Karting a lo largo del pa\u00eds.\n\nRally Karting Santiago\nRally Karting Vi\u00f1a\nRally Karting Puente Alto\nRally Karting Antofagasta\nRally Karting Puerto Montt\nRally Karting Concepci\u00f3n\nRally Karting Cerrillos\nRally Karting La Serena Rally Karting Lider La Serena\nRally Karting Calama","message":"SOLO LOS MEJORES PODRAN VIVIR ESTA EXPERIENCIA UNICA! TE ATREVES A INTENTARLO? PRONTO MAS INFORMACION! Rally Karting Antofagasta","type":"photo","link":"https:\/\/www.facebook.com\/ClubKartingC\/photos\/a.1742079902688016.1073741829.1741143922781614\/1822040531358619\/?type=3","id":"267106520125537_619648328204686","created_time":"2016-07-12T23:52:59+0000","full_picture":"https:\/\/scontent.xx.fbcdn.net\/v\/t31.0-8\/s720x720\/13667745_1822040531358619_3110587804935419186_o.jpg?oh=161023c610a3bc2c0abcf9cfc1d83e64&oe=59CCBFCD","picture":"https:\/\/scontent.xx.fbcdn.net\/v\/t1.0-0\/s130x130\/13606840_1822040531358619_3110587804935419186_n.jpg?oh=f046699eb1a0f7c5f8b1e1a1dba44ff0&oe=5A0C8A1A","status_type":"mobile_status_update","story":"Rally Karting Antofagasta shared Club Karting Chile's photo.","likes":{"data":[{"id":"10213487503363147","name":"Patricio Alarc\u00f3n"}],"paging":{"cursors":{"before":"MTAyMTM0ODc1MDMzNjMxNDcZD","after":"MTAyMTM0ODc1MDMzNjMxNDcZD"},"next":"https:\/\/graph.facebook.com\/v2.6\/267106520125537_619648328204686\/likes?access_token=1403531783287112\u00257Caefc31dedc867adfcb816e3b8991d1dd&summary=true&limit=1&after=MTAyMTM0ODc1MDMzNjMxNDcZD"},"summary":{"total_count":6,"can_like":false,"has_liked":false}},"attachments":{"data":[{"description":"NOS VAMOS CON TODO POR LA MASIFICACI\u00d3N DEL KARTING EN CHILE!!!!\n\nLes contamos que este a\u00f1o se realizar\u00e1, por vez primera e in\u00e9dita en nuestro pa\u00eds, una Copa de Karting donde se mezclar\u00e1 la participaci\u00f3n de pilotos Amateur, que llegar\u00e1n clasificados desde una alianza con Rally Karting en todas sus sedes a nivel nacional, pilotos profesionales que participan de los distintos Campeonatos y Clubes de Karting Profesional del pa\u00eds y adem\u00e1s de pilotos invitados desde otras disciplinas del deporte motor.\n\nPara todo esto, contaremos con el patrocinio y apoyo como siempre de Fadech, con quienes trabajaremos para asegurar los est\u00e1ndares del evento a los niveles ferederados correspondientes.\n\nPronto tendremos m\u00e1s detalles, pero la fecha tentativa ser\u00e1 Noviembre de este a\u00f1o...\n\nEl lugar??? Donde m\u00e1s que en LAMPA Kart Center, nuestra casa y el mejor Kart\u00f3dromo a nivel nacional.\n\nSigue las informaciones usando #race2016 e informate tambi\u00e9n en cualquiera de las sedes de Rally Karting a lo largo del pa\u00eds.\n\nRally Karting Santiago\nRally Karting Vi\u00f1a\nRally Karting Puente Alto\nRally Karting Antofagasta\nRally Karting Puerto Montt\nRally Karting Concepci\u00f3n\nRally Karting Cerrillos\nRally Karting La Serena Rally Karting Lider La Serena\nRally Karting Calama","description_tags":[{"id":"776291595752522","length":6,"name":"Fadech","offset":572,"type":"page"},{"id":"444406945741312","length":17,"name":"LAMPA Kart Center","offset":805,"type":"page"},{"id":"1665569667020005","length":22,"name":"Rally Karting Santiago","offset":1005,"type":"page"},{"id":"1623296331276840","length":18,"name":"Rally Karting Vi\u00f1a","offset":1028,"type":"page"},{"id":"499708476821062","length":25,"name":"Rally Karting Chile","offset":1047,"type":"page"},{"id":"267106520125537","length":25,"name":"Rally Karting Antofagasta","offset":1073,"type":"page"},{"id":"431130450426355","length":26,"name":"Rally Karting Puerto Montt","offset":1099,"type":"page"},{"id":"1477398122565380","length":24,"name":"Rally Karting Concepci\u00f3n Tr\u00e9bol","offset":1126,"type":"page"},{"id":"256517098056844","length":23,"name":"Rally Karting Cerrillos","offset":1151,"type":"page"},{"id":"315578865306752","length":23,"name":"Rally Karting La Serena","offset":1175,"type":"page"},{"id":"390797020988575","length":29,"name":"Rally Karting Lider La Serena","offset":1199,"type":"page"},{"id":"1669875936625049","length":20,"name":"Rally Karting Calama","offset":1229,"type":"page"}],"media":{"image":{"height":720,"src":"https:\/\/scontent.xx.fbcdn.net\/v\/t31.0-8\/s720x720\/13667745_1822040531358619_3110587804935419186_o.jpg?oh=161023c610a3bc2c0abcf9cfc1d83e64&oe=59CCBFCD","width":288}},"target":{"id":"1822040531358619","url":"https:\/\/www.facebook.com\/ClubKartingC\/photos\/a.1742079902688016.1073741829.1741143922781614\/1822040531358619\/?type=3"},"title":"Timeline Photos","type":"photo","url":"https:\/\/www.facebook.com\/ClubKartingC\/photos\/a.1742079902688016.1073741829.1741143922781614\/1822040531358619\/?type=3"}]}},{"name":"La Previa Chile Vs Argentina \u002530 Mas En Tus Vueltas","object_id":"1556231964681689","description":"LA PREVIA CHILE V\/S ARGENTINA!SE VIVE EN Rally Karting Antofagasta! ANTES DEL PARTIDO A CORRER CON \u002530 MAS EN VUELTAS! :o\n$7.000 10 VUELTAS! HOY CORRES 12 + LA DE RECONOCIMIENTO\n$10.000 18 VUELTAS! HOY CORRES 25 + LA DE RECONOCIMIENTO\n$15.000 28 VUELTAS! HOY CORRES 35 + LA DE RECONOCIMIENTO\nENCUENTRANOS EN EL ESTACIONAMIENTO -2 DEL L\u00cdDER (COSTADO MUNICIPALIDAD)\nMUESTRA ESTA PUBLICACI\u00d3N PARA HACER VALIDA TU PROMO","message":"LA PREVIA CHILE V\/S ARGENTINA!SE VIVE EN Rally Karting Antofagasta! ANTES DEL PARTIDO A CORRER CON \u002530 MAS EN VUELTAS! :o\n$7.000 10 VUELTAS! HOY CORRES 12 + LA DE RECONOCIMIENTO\n$10.000 18 VUELTAS! HOY CORRES 25 + LA DE RECONOCIMIENTO\n$15.000 28 VUELTAS! HOY CORRES 35 + LA DE RECONOCIMIENTO\nENCUENTRANOS EN EL ESTACIONAMIENTO -2 DEL L\u00cdDER (COSTADO MUNICIPALIDAD)\nMUESTRA ESTA PUBLICACI\u00d3N PARA HACER VALIDA TU PROMO","type":"event","link":"https:\/\/www.facebook.com\/events\/1556231964681689\/","caption":"La Previa Chile Vs Argentina \u002530 Mas En Tus Vueltas","id":"267106520125537_1556231964681689","created_time":"2016-06-06T20:39:29+0000","full_picture":"https:\/\/scontent.xx.fbcdn.net\/v\/t1.0-9\/13344811_603679769801542_6014846886018396410_n.jpg?oh=b4ff283d89ad956e812fd19d86304643&oe=5A079CE1","picture":"https:\/\/scontent.xx.fbcdn.net\/v\/t1.0-0\/p130x130\/13344811_603679769801542_6014846886018396410_n.jpg?oh=468b8df0b71b2f44d1012c896dde3d79&oe=59FD276F","status_type":"created_event","story":"Rally Karting Antofagasta added an event.","likes":{"data":[],"summary":{"total_count":0,"can_like":true,"has_liked":false}},"attachments":{"data":[{"description":"5 people interested","media":{"image":{"height":526,"src":"https:\/\/scontent.xx.fbcdn.net\/v\/t1.0-9\/13344811_603679769801542_6014846886018396410_n.jpg?oh=b4ff283d89ad956e812fd19d86304643&oe=5A079CE1","width":526}},"target":{"id":"1556231964681689","url":"https:\/\/www.facebook.com\/events\/1556231964681689\/"},"title":"La Previa Chile Vs Argentina \u002530 Mas En Tus Vueltas","type":"event","url":"https:\/\/www.facebook.com\/events\/1556231964681689\/"}]}},{"name":"Hoy Hoy Hoy Rally Karting Antofagasta!","object_id":"1758911874343562","description":"ESTE DOMINGO FAMILIAR VEN A DISFRUTARLO EN Rally Karting Antofagasta\nVEN TE ESPERAMOS HOY DOMINGO CON EXCELENTES PROMISIONES \nPROMO DE \u002530 MAS! EN TUS VUELTAS! ALGUNOS YA CORRIERON! FALTAS TU! TE ESPERAMOS!\n$7.000 10 VUELTAS! HOY CORRES 12 + LA DE RECONOCIMIENTO\n$10.000 18 VUELTAS! HOY CORRES 25 + LA DE RECONOCIMIENTO\n$15.000 28 VUELTAS! HOY CORRES 35 + LA DE RECONOCIMIENTO","type":"event","link":"https:\/\/www.facebook.com\/events\/1758911874343562\/","caption":"Hoy Hoy Hoy Rally Karting Antofagasta!","id":"267106520125537_603201219849397","created_time":"2016-06-05T16:20:16+0000","full_picture":"https:\/\/scontent.xx.fbcdn.net\/v\/t31.0-8\/c120.0.720.720\/p720x720\/13346321_603199529849566_6124982555587043734_o.jpg?oh=68798cd42186ad7f82ce081ebbe55aa6&oe=59FBC27A","picture":"https:\/\/scontent.xx.fbcdn.net\/v\/t1.0-0\/c22.0.130.130\/p130x130\/12991115_603199529849566_6124982555587043734_n.jpg?oh=6bc6bf295b372e8087b79a97e0792181&oe=5A0C92E8","status_type":"shared_story","story":"Rally Karting Antofagasta shared their event.","likes":{"data":[{"id":"1711706802431248","name":"Javier Mina"}],"paging":{"cursors":{"before":"MTcxMTcwNjgwMjQzMTI0OAZDZD","after":"MTcxMTcwNjgwMjQzMTI0OAZDZD"}},"summary":{"total_count":1,"can_like":false,"has_liked":false}},"attachments":{"data":[{"description":"10 people interested","media":{"image":{"height":720,"src":"https:\/\/scontent.xx.fbcdn.net\/v\/t31.0-8\/c120.0.720.720\/p720x720\/13346321_603199529849566_6124982555587043734_o.jpg?oh=68798cd42186ad7f82ce081ebbe55aa6&oe=59FBC27A","width":720}},"target":{"id":"1758911874343562","url":"https:\/\/www.facebook.com\/events\/1758911874343562\/"},"title":"Hoy Hoy Hoy Rally Karting Antofagasta!","type":"event","url":"https:\/\/www.facebook.com\/events\/1758911874343562\/"}]}}],"paging":{"previous":"https:\/\/graph.facebook.com\/v2.6\/267106520125537\/posts?limit=4&fields=name,object_id,description,message,type,link,caption,id,created_time,full_picture,source,picture,status_type,story,attachments,likes.limit\u0025281\u002529.summary\u002528true\u002529&since=1468965893&access_token=1403531783287112|aefc31dedc867adfcb816e3b8991d1dd&__paging_token=enc_AdAZBZAPOR3UDbAMCj7NRSEQ23kRlfKPZBfpWCcwD92sDrfaeqriM192Q4s4qsVZCCXtx1hYqHGTk0rtUYRPqVXXt74Ha3W1qmgAYw11a94c4dHeVwZDZD&__previous=1","next":"https:\/\/graph.facebook.com\/v2.6\/267106520125537\/posts?limit=4&fields=name,object_id,description,message,type,link,caption,id,created_time,full_picture,source,picture,status_type,story,attachments,likes.limit\u0025281\u002529.summary\u002528true\u002529&access_token=1403531783287112|aefc31dedc867adfcb816e3b8991d1dd&until=1465143616&__paging_token=enc_AdDbg0SIvwRu0v7Gjwu3bcb3qlIrbuFB7LFYThIZCsZC4OcP9PQLCRtpHMCSjzMY6JRLIjeJ93608sZCfN7Hi7M1BmoZA7sL9gRQYOxNQg3Etxxd9QZDZD"}},"id":"267106520125537"}