{"name":"Rally Karting Chile","picture":{"data":{"is_silhouette":false,"url":"https:\/\/scontent.xx.fbcdn.net\/v\/t1.0-1\/p50x50\/18402666_777219485736625_1907996681385770748_n.jpg?oh=786d4b40b40177f060030f5d959c0cac&oe=5A04BF98"}},"posts":{"data":[{"name":"Rally Karting Chile's cover photo","object_id":"820022911456282","type":"photo","link":"https:\/\/www.facebook.com\/499708476821062\/photos\/a.499708520154391.1073741827.499708476821062\/820022911456282\/?type=3","id":"499708476821062_820022911456282","created_time":"2017-07-10T14:11:22+0000","full_picture":"https:\/\/scontent.xx.fbcdn.net\/v\/t31.0-8\/s720x720\/19942993_820022911456282_5253803100182627430_o.jpg?oh=dbd8f67dfaa81c476613ae98ca9d6813&oe=5A06CE65","picture":"https:\/\/scontent.xx.fbcdn.net\/v\/t1.0-0\/s130x130\/19884038_820022911456282_5253803100182627430_n.jpg?oh=a0bb74a7df53c96d70203e8c575ed661&oe=5A11D102","status_type":"added_photos","story":"Rally Karting Chile updated their cover photo.","likes":{"data":[{"id":"119962795287714","name":"Eduardo CGallardo"}],"paging":{"cursors":{"before":"MTE5OTYyNzk1Mjg3NzE0","after":"MTE5OTYyNzk1Mjg3NzE0"}},"summary":{"total_count":1,"can_like":false,"has_liked":false}},"attachments":{"data":[{"media":{"image":{"height":404,"src":"https:\/\/scontent.xx.fbcdn.net\/v\/t31.0-8\/s720x720\/19942993_820022911456282_5253803100182627430_o.jpg?oh=dbd8f67dfaa81c476613ae98ca9d6813&oe=5A06CE65","width":720}},"target":{"id":"499708476821062","url":"https:\/\/www.facebook.com\/Rally-Karting-Chile-499708476821062\/"},"title":"Rally Karting Chile's cover photo","type":"cover_photo","url":"https:\/\/www.facebook.com\/Rally-Karting-Chile-499708476821062\/"}]}},{"name":"Timeline Photos","object_id":"820006198124620","message":"COMIENZAN LOS 12 D\u00cdAS M\u00c1S EMOCIONANTES DE JULIO... DESDE HOY ARRANCAN LAS CLASIFICACIONES PARA LA 3\u00b0 FECHA DE NUESTRO KING OF SPEED!!!! \nTODOS LOS D\u00cdAS LOS TICKETS NORMAL Y DESAFIO COMPITEN POR EL MEJOR CRONO Y SU LUGAR EN LA GRILLA DE LA FINAL DEL DOMINGO 23\nYA LO SABES.... DESDE HOY EMPIEZA A VIVIR LA 3\u00b0FECHA DE NUESTRO KING OF SPEED!!!!!","type":"photo","link":"https:\/\/www.facebook.com\/499708476821062\/photos\/a.499708516821058.1073741826.499708476821062\/820006198124620\/?type=3","id":"499708476821062_820006198124620","created_time":"2017-07-10T13:41:12+0000","full_picture":"https:\/\/scontent.xx.fbcdn.net\/v\/t31.0-8\/s720x720\/19942889_820006198124620_7299801905905567164_o.jpg?oh=605444cea3e5f32dec1e5d6d5be5d685&oe=59CAB296","picture":"https:\/\/scontent.xx.fbcdn.net\/v\/t1.0-0\/s130x130\/19905264_820006198124620_7299801905905567164_n.jpg?oh=c696ab9cc6db197675936610411d40e3&oe=59C8B752","status_type":"added_photos","likes":{"data":[{"id":"10209191167876967","name":"Alfonso Martinez Figueroa"}],"paging":{"cursors":{"before":"MTAyMDkxOTExNjc4NzY5NjcZD","after":"MTAyMDkxOTExNjc4NzY5NjcZD"},"next":"https:\/\/graph.facebook.com\/v2.6\/499708476821062_820006198124620\/likes?access_token=1403531783287112\u00257Caefc31dedc867adfcb816e3b8991d1dd&summary=true&limit=1&after=MTAyMDkxOTExNjc4NzY5NjcZD"},"summary":{"total_count":13,"can_like":false,"has_liked":false}},"attachments":{"data":[{"description":"COMIENZAN LOS 12 D\u00cdAS M\u00c1S EMOCIONANTES DE JULIO... DESDE HOY ARRANCAN LAS CLASIFICACIONES PARA LA 3\u00b0 FECHA DE NUESTRO KING OF SPEED!!!! \nTODOS LOS D\u00cdAS LOS TICKETS NORMAL Y DESAFIO COMPITEN POR EL MEJOR CRONO Y SU LUGAR EN LA GRILLA DE LA FINAL DEL DOMINGO 23\nYA LO SABES.... DESDE HOY EMPIEZA A VIVIR LA 3\u00b0FECHA DE NUESTRO KING OF SPEED!!!!!","media":{"image":{"height":404,"src":"https:\/\/scontent.xx.fbcdn.net\/v\/t31.0-8\/s720x720\/19942889_820006198124620_7299801905905567164_o.jpg?oh=605444cea3e5f32dec1e5d6d5be5d685&oe=59CAB296","width":720}},"target":{"id":"820006198124620","url":"https:\/\/www.facebook.com\/499708476821062\/photos\/a.499708516821058.1073741826.499708476821062\/820006198124620\/?type=3"},"title":"Timeline Photos","type":"photo","url":"https:\/\/www.facebook.com\/499708476821062\/photos\/a.499708516821058.1073741826.499708476821062\/820006198124620\/?type=3"}]}},{"name":"Photos from Rally Karting Chile's post","object_id":"819304288194811","message":"AS\u00cd ES UN D\u00cdA EN RALLY KARTING.... Y TU AUN NO NOS CONOCES????? \nINGRESA A NUESTRA P\u00c1GINA WEB WWW.RALLYKARTING.CL Y ENT\u00c9RATE DE NUESTROS PRECIOS, HORARIOS Y UBICACIONES!!! \nVIVE ESTAS VACACIONES DE INVIERNO CON EMOCION.... VEN A RALLY KARTING!!!!!","type":"photo","link":"https:\/\/www.facebook.com\/499708476821062\/photos\/a.534220676703175.1073741832.499708476821062\/819304288194811\/?type=3","id":"499708476821062_819304628194777","created_time":"2017-07-09T13:27:58+0000","full_picture":"https:\/\/scontent.xx.fbcdn.net\/v\/t1.0-9\/s720x720\/19756398_819304288194811_2866383038085762878_n.jpg?oh=6f48c2de51293f765582f2ebc4671d65&oe=5A0F0732","picture":"https:\/\/scontent.xx.fbcdn.net\/v\/t1.0-0\/s130x130\/19756398_819304288194811_2866383038085762878_n.jpg?oh=5f878219a2d8927c4299a27b5a469271&oe=59C63ACD","status_type":"added_photos","story":"Rally Karting Chile added 9 new photos.","likes":{"data":[{"id":"1797234070305668","name":"Carlos Antonio Repol Lagos"}],"paging":{"cursors":{"before":"MTc5NzIzNDA3MDMwNTY2OAZDZD","after":"MTc5NzIzNDA3MDMwNTY2OAZDZD"},"next":"https:\/\/graph.facebook.com\/v2.6\/499708476821062_819304628194777\/likes?access_token=1403531783287112\u00257Caefc31dedc867adfcb816e3b8991d1dd&summary=true&limit=1&after=MTc5NzIzNDA3MDMwNTY2OAZDZD"},"summary":{"total_count":8,"can_like":false,"has_liked":false}},"attachments":{"data":[{"subattachments":{"data":[{"media":{"image":{"height":720,"src":"https:\/\/scontent.xx.fbcdn.net\/v\/t1.0-9\/s720x720\/19756398_819304288194811_2866383038085762878_n.jpg?oh=6f48c2de51293f765582f2ebc4671d65&oe=5A0F0732","width":405}},"target":{"id":"819304288194811","url":"https:\/\/www.facebook.com\/499708476821062\/photos\/a.534220676703175.1073741832.499708476821062\/819304288194811\/?type=3"},"type":"photo","url":"https:\/\/www.facebook.com\/499708476821062\/photos\/a.534220676703175.1073741832.499708476821062\/819304288194811\/?type=3"},{"media":{"image":{"height":405,"src":"https:\/\/scontent.xx.fbcdn.net\/v\/t1.0-9\/s720x720\/19748477_819304308194809_4127557299179860430_n.jpg?oh=881822595645611144599dc86a0782ea&oe=59CEEE86","width":720}},"target":{"id":"819304308194809","url":"https:\/\/www.facebook.com\/499708476821062\/photos\/a.534220676703175.1073741832.499708476821062\/819304308194809\/?type=3"},"type":"photo","url":"https:\/\/www.facebook.com\/499708476821062\/photos\/a.534220676703175.1073741832.499708476821062\/819304308194809\/?type=3"},{"media":{"image":{"height":405,"src":"https:\/\/scontent.xx.fbcdn.net\/v\/t1.0-9\/s720x720\/19884003_819304341528139_7021149588907338987_n.jpg?oh=3ceca42fba044053a12bbf0ec59133eb&oe=59C6B861","width":720}},"target":{"id":"819304341528139","url":"https:\/\/www.facebook.com\/499708476821062\/photos\/a.534220676703175.1073741832.499708476821062\/819304341528139\/?type=3"},"type":"photo","url":"https:\/\/www.facebook.com\/499708476821062\/photos\/a.534220676703175.1073741832.499708476821062\/819304341528139\/?type=3"},{"media":{"image":{"height":405,"src":"https:\/\/scontent.xx.fbcdn.net\/v\/t1.0-9\/s720x720\/19748346_819304378194802_1441638308839643505_n.jpg?oh=7feddaa0bdcf1b97be23ebb7870f9859&oe=59FBB0FB","width":720}},"target":{"id":"819304378194802","url":"https:\/\/www.facebook.com\/499708476821062\/photos\/a.534220676703175.1073741832.499708476821062\/819304378194802\/?type=3"},"type":"photo","url":"https:\/\/www.facebook.com\/499708476821062\/photos\/a.534220676703175.1073741832.499708476821062\/819304378194802\/?type=3"},{"media":{"image":{"height":720,"src":"https:\/\/scontent.xx.fbcdn.net\/v\/t1.0-9\/s720x720\/19732327_819304424861464_3608303492155051707_n.jpg?oh=77c0621943583686ccd9d4cdbc9bebda&oe=5A01251E","width":405}},"target":{"id":"819304424861464","url":"https:\/\/www.facebook.com\/499708476821062\/photos\/a.534220676703175.1073741832.499708476821062\/819304424861464\/?type=3"},"type":"photo","url":"https:\/\/www.facebook.com\/499708476821062\/photos\/a.534220676703175.1073741832.499708476821062\/819304424861464\/?type=3"},{"media":{"image":{"height":540,"src":"https:\/\/scontent.xx.fbcdn.net\/v\/t1.0-0\/p180x540\/19756652_819304458194794_4760169649441223070_n.jpg?oh=7df81ece4d6ec6981b129fc27da181e8&oe=59C5DDCD","width":720}},"target":{"id":"819304458194794","url":"https:\/\/www.facebook.com\/499708476821062\/photos\/a.534220676703175.1073741832.499708476821062\/819304458194794\/?type=3"},"type":"photo","url":"https:\/\/www.facebook.com\/499708476821062\/photos\/a.534220676703175.1073741832.499708476821062\/819304458194794\/?type=3"},{"media":{"image":{"height":540,"src":"https:\/\/scontent.xx.fbcdn.net\/v\/t1.0-0\/p180x540\/19883941_819304511528122_1537476656207286358_n.jpg?oh=46a7bead98314fce8355d2e2d1bd81ce&oe=59CA020B","width":720}},"target":{"id":"819304511528122","url":"https:\/\/www.facebook.com\/499708476821062\/photos\/a.534220676703175.1073741832.499708476821062\/819304511528122\/?type=3"},"type":"photo","url":"https:\/\/www.facebook.com\/499708476821062\/photos\/a.534220676703175.1073741832.499708476821062\/819304511528122\/?type=3"},{"media":{"image":{"height":523,"src":"https:\/\/scontent.xx.fbcdn.net\/v\/t1.0-9\/s720x720\/19959395_819304538194786_7730195681908551381_n.jpg?oh=2e6df1ca6a569fcdf30060b62628909f&oe=59FF5242","width":720}},"target":{"id":"819304538194786","url":"https:\/\/www.facebook.com\/499708476821062\/photos\/a.534220676703175.1073741832.499708476821062\/819304538194786\/?type=3"},"type":"photo","url":"https:\/\/www.facebook.com\/499708476821062\/photos\/a.534220676703175.1073741832.499708476821062\/819304538194786\/?type=3"},{"media":{"image":{"height":540,"src":"https:\/\/scontent.xx.fbcdn.net\/v\/t1.0-0\/p180x540\/19756735_819304551528118_2745486728260923563_n.jpg?oh=5b5d95365b89534cf2976a87cd48373e&oe=5A0AFD22","width":720}},"target":{"id":"819304551528118","url":"https:\/\/www.facebook.com\/499708476821062\/photos\/a.534220676703175.1073741832.499708476821062\/819304551528118\/?type=3"},"type":"photo","url":"https:\/\/www.facebook.com\/499708476821062\/photos\/a.534220676703175.1073741832.499708476821062\/819304551528118\/?type=3"}]},"target":{"id":"819304628194777","url":"https:\/\/www.facebook.com\/permalink.php?story_fbid=819304628194777&id=499708476821062"},"title":"Photos from Rally Karting Chile's post","type":"album","url":"https:\/\/www.facebook.com\/permalink.php?story_fbid=819304628194777&id=499708476821062"}]}},{"object_id":"818914801567093","message":"AS\u00cd SE VIVE LA VELOCIDAD EN NUESTRA PISTA DE LO BARNECHEA!!!! \nY TU AUN EN CASA????? \nVEN... TE ESPERAMOS!!!!!","type":"video","link":"https:\/\/www.facebook.com\/499708476821062\/videos\/818914801567093\/","id":"499708476821062_818914801567093","created_time":"2017-07-08T20:39:41+0000","full_picture":"https:\/\/scontent.xx.fbcdn.net\/v\/t15.0-10\/19964431_818915014900405_4497253125995888640_n.jpg?oh=0b44b74e4b9ca87b549e84183d49fe87&oe=5A0B6754","source":"https:\/\/video.xx.fbcdn.net\/v\/t42.1790-2\/19879158_314896438936292_7309734544779771904_n.mp4?efg=eyJybHIiOjM4OCwicmxhIjo1MTIsInZlbmNvZGVfdGFnIjoic3ZlX3NkIn0\u00253D&rl=388&vabr=216&oh=1bd446f6463187c57371529f027dea3f&oe=59667118","picture":"https:\/\/scontent.xx.fbcdn.net\/v\/t15.0-10\/s130x130\/19964431_818915014900405_4497253125995888640_n.jpg?oh=69b321f1b7863e0020daa1eab2d74b06&oe=59C3EBB9","status_type":"added_video","likes":{"data":[{"id":"10211900566408214","name":"Henry Antonio Adasme Chamorro"}],"paging":{"cursors":{"before":"MTAyMTE5MDA1NjY0MDgyMTQZD","after":"MTAyMTE5MDA1NjY0MDgyMTQZD"},"next":"https:\/\/graph.facebook.com\/v2.6\/499708476821062_818914801567093\/likes?access_token=1403531783287112\u00257Caefc31dedc867adfcb816e3b8991d1dd&summary=true&limit=1&after=MTAyMTE5MDA1NjY0MDgyMTQZD"},"summary":{"total_count":77,"can_like":false,"has_liked":false}},"attachments":{"data":[{"media":{"image":{"height":220,"src":"https:\/\/scontent.xx.fbcdn.net\/v\/t15.0-10\/19964431_818915014900405_4497253125995888640_n.jpg?oh=0b44b74e4b9ca87b549e84183d49fe87&oe=5A0B6754","width":400}},"target":{"id":"818914801567093","url":"https:\/\/www.facebook.com\/499708476821062\/videos\/818914801567093\/"},"type":"video_inline","url":"https:\/\/www.facebook.com\/499708476821062\/videos\/818914801567093\/"}]}}],"paging":{"previous":"https:\/\/graph.facebook.com\/v2.6\/499708476821062\/posts?limit=4&fields=name,object_id,description,message,type,link,caption,id,created_time,full_picture,source,picture,status_type,story,attachments,likes.limit\u0025281\u002529.summary\u002528true\u002529&since=1499695882&access_token=1403531783287112|aefc31dedc867adfcb816e3b8991d1dd&__paging_token=enc_AdCe8iNM1Vq2h1Mn8yanKauxZA6JfOzXQrvUT1UAexvFIRpY9XyZCiKaYX2soSIcKFuR7sttO0G3RWMqzuY4QxA4W2C4otHewwOuySkIZA5XR38sQZDZD&__previous=1","next":"https:\/\/graph.facebook.com\/v2.6\/499708476821062\/posts?limit=4&fields=name,object_id,description,message,type,link,caption,id,created_time,full_picture,source,picture,status_type,story,attachments,likes.limit\u0025281\u002529.summary\u002528true\u002529&access_token=1403531783287112|aefc31dedc867adfcb816e3b8991d1dd&until=1499546381&__paging_token=enc_AdCT3Pih8EeVDn2ipnvIZAMckzFwqJNmfQMYB7epILxhldt3zKD3hpYnEC29LZAgnkqBZBc7lrTR3Uo028optRf0Qk6gp6N9l6lks17ePUQgZAreoAZDZD"}},"id":"499708476821062"}