{"name":"Rally Karting Plaza Oeste","picture":{"data":{"is_silhouette":false,"url":"https:\/\/scontent.xx.fbcdn.net\/v\/t1.0-1\/c43.0.50.50\/p50x50\/13428401_962371473878709_5655328797531448461_n.jpg?oh=ea34debf8bbedc55760d655000a47d5a&oe=5A0317B2"}},"posts":{"data":[{"name":"Rally Karting Plaza Oeste's cover photo","object_id":"962376363878220","type":"photo","link":"https:\/\/www.facebook.com\/Rallykartinplazaoeste\/photos\/a.962376383878218.1073741827.962366610545862\/962376363878220\/?type=3","id":"962366610545862_962376363878220","created_time":"2016-06-09T20:13:50+0000","full_picture":"https:\/\/scontent.xx.fbcdn.net\/v\/t1.0-9\/13417656_962376363878220_6825992635503407366_n.jpg?oh=353fb1c352e80807e41c5c5670c52c7f&oe=59CCAD0B","picture":"https:\/\/scontent.xx.fbcdn.net\/v\/t1.0-0\/s130x130\/13417656_962376363878220_6825992635503407366_n.jpg?oh=9d85b38f71637c3f9175bb6f090f4cca&oe=59FED096","status_type":"added_photos","story":"Rally Karting Plaza Oeste updated their cover photo.","likes":{"data":[{"id":"189484188183038","name":"Deivis Acosta"}],"paging":{"cursors":{"before":"MTg5NDg0MTg4MTgzMDM4","after":"MTg5NDg0MTg4MTgzMDM4"},"next":"https:\/\/graph.facebook.com\/v2.6\/962366610545862_962376363878220\/likes?access_token=1403531783287112\u00257Caefc31dedc867adfcb816e3b8991d1dd&summary=true&limit=1&after=MTg5NDg0MTg4MTgzMDM4"},"summary":{"total_count":3,"can_like":false,"has_liked":false}},"attachments":{"data":[{"media":{"image":{"height":200,"src":"https:\/\/scontent.xx.fbcdn.net\/v\/t1.0-9\/13417656_962376363878220_6825992635503407366_n.jpg?oh=353fb1c352e80807e41c5c5670c52c7f&oe=59CCAD0B","width":540}},"target":{"id":"962366610545862","url":"https:\/\/www.facebook.com\/Rallykartinplazaoeste\/"},"title":"Rally Karting Plaza Oeste's cover photo","type":"cover_photo","url":"https:\/\/www.facebook.com\/Rallykartinplazaoeste\/"}]}},{"name":"Rally Karting Plaza Oeste","object_id":"962371473878709","type":"photo","link":"https:\/\/www.facebook.com\/Rallykartinplazaoeste\/photos\/a.962371467212043.1073741825.962366610545862\/962371473878709\/?type=3","id":"962366610545862_962371473878709","created_time":"2016-06-09T20:01:32+0000","full_picture":"https:\/\/scontent.xx.fbcdn.net\/v\/t1.0-9\/13428401_962371473878709_5655328797531448461_n.jpg?oh=d60f677c40cff4aa68afdcbcc3003382&oe=59D1A962","picture":"https:\/\/scontent.xx.fbcdn.net\/v\/t1.0-0\/s130x130\/13428401_962371473878709_5655328797531448461_n.jpg?oh=6a89586202cf0bb4e1a55e5fdc3b8777&oe=59CD74FF","status_type":"added_photos","story":"Rally Karting Plaza Oeste updated their profile picture.","likes":{"data":[{"id":"423810644648322","name":"Bayron Andres M'ayrii "}],"paging":{"cursors":{"before":"NDIzODEwNjQ0NjQ4MzIy","after":"NDIzODEwNjQ0NjQ4MzIy"},"next":"https:\/\/graph.facebook.com\/v2.6\/962366610545862_962371473878709\/likes?access_token=1403531783287112\u00257Caefc31dedc867adfcb816e3b8991d1dd&summary=true&limit=1&after=NDIzODEwNjQ0NjQ4MzIy"},"summary":{"total_count":2,"can_like":false,"has_liked":false}},"attachments":{"data":[{"media":{"image":{"height":200,"src":"https:\/\/scontent.xx.fbcdn.net\/v\/t1.0-9\/13428401_962371473878709_5655328797531448461_n.jpg?oh=d60f677c40cff4aa68afdcbcc3003382&oe=59D1A962","width":540}},"target":{"id":"962366610545862","url":"https:\/\/www.facebook.com\/Rallykartinplazaoeste\/"},"title":"Rally Karting Plaza Oeste","type":"profile_media","url":"https:\/\/www.facebook.com\/Rallykartinplazaoeste\/"}]}}],"paging":{"previous":"https:\/\/graph.facebook.com\/v2.6\/962366610545862\/posts?limit=4&fields=name,object_id,description,message,type,link,caption,id,created_time,full_picture,source,picture,status_type,story,attachments,likes.limit\u0025281\u002529.summary\u002528true\u002529&since=1465503230&access_token=1403531783287112|aefc31dedc867adfcb816e3b8991d1dd&__paging_token=enc_AdBhB4ThZBEkA67aq5HZBWOLXNwqAqSjzyYlw60sN6m1aZAvB9mHP2ZCLmY92uXdZAV7O6on4BXTjH9ufTtBjWA1warsGqStVdhwjLTN44Dza3zdt3QZDZD&__previous=1","next":"https:\/\/graph.facebook.com\/v2.6\/962366610545862\/posts?limit=4&fields=name,object_id,description,message,type,link,caption,id,created_time,full_picture,source,picture,status_type,story,attachments,likes.limit\u0025281\u002529.summary\u002528true\u002529&access_token=1403531783287112|aefc31dedc867adfcb816e3b8991d1dd&until=1465502492&__paging_token=enc_AdCFz1e5eaKxmtAsLwvhXyZADNW5jJyW8mzRZB1nPPg1J2D0yaKFgoYOGxmVZCBc1vVIe6D6pjmkLfsCPhTfAlInFCgQPSFz4cqQ6aoRwzlHjKAtAZDZD"}},"id":"962366610545862"}